{
    "boss":{
        "size":64,
        "swim_speed":1,
        "swim_turn_angle":10,
        "sprint_speed":6,
        "obstacle_avoidence_strength":0.08,
        "head_offset":50,
        "player_detection_range":500,
        "health":800,
        "growth_size":999999999999,
        "bite_size":100,
        "bite_rect_size":10
    },

    "test0":{
        "size":16,
        "swim_speed":0.6,
        "swim_turn_angle":5,
        "sprint_speed":2,
        "obstacle_avoidence_strength":0.08,
        "head_offset":13,
        "player_detection_range":100,
        "health":5,
        "growth_size":5,
        "bite_size":4,
        "bite_rect_size":8
    },

    "passive":{
        "size":12,
        "swim_speed":0.6,
        "swim_turn_angle":5,
        "sprint_speed":2,
        "obstacle_avoidence_strength":0.08,
        "head_offset":9,
        "player_detection_range":0,
        "health":5,
        "growth_size":5,
        "bite_size":0,
        "bite_rect_size":0
    },

    "agg01":{
        "size":24,
        "swim_speed":0.6,
        "swim_turn_angle":5,
        "sprint_speed":2,
        "obstacle_avoidence_strength":0.08,
        "head_offset":17,
        "player_detection_range":100,
        "health":10,
        "growth_size":10,
        "bite_size":4,
        "bite_rect_size":8
    },

    "agg11":{
        "size":24,
        "swim_speed":0.6,
        "swim_turn_angle":5,
        "sprint_speed":2,
        "obstacle_avoidence_strength":0.08,
        "head_offset":17,
        "player_detection_range":100,
        "health":15,
        "growth_size":15,
        "bite_size":6,
        "bite_rect_size":8
    },

    "agg21":{
        "size":24,
        "swim_speed":0.6,
        "swim_turn_angle":5,
        "sprint_speed":2,
        "obstacle_avoidence_strength":0.08,
        "head_offset":17,
        "player_detection_range":150,
        "health":25,
        "growth_size":25,
        "bite_size":12,
        "bite_rect_size":8
    },

    "agg31":{
        "size":24,
        "swim_speed":0.6,
        "swim_turn_angle":5,
        "sprint_speed":2,
        "obstacle_avoidence_strength":0.08,
        "head_offset":17,
        "player_detection_range":150,
        "health":30,
        "growth_size":30,
        "bite_size":16,
        "bite_rect_size":8
    },

    "agg4shark":{
        "size":36,
        "swim_speed":1,
        "swim_turn_angle":8,
        "sprint_speed":3,
        "obstacle_avoidence_strength":0.08,
        "head_offset":36,
        "player_detection_range":150,
        "health":75,
        "growth_size":150,
        "bite_size":40,
        "bite_rect_size":8
    },
    
    "agg5peeper":{
        "size":24,
        "swim_speed":0.6,
        "swim_turn_angle":5,
        "sprint_speed":2,
        "obstacle_avoidence_strength":0.08,
        "head_offset":17,
        "player_detection_range":150,
        "health":35,
        "growth_size":70,
        "bite_size":20,
        "bite_rect_size":8
    },

    "agg5sly":{
        "size":22,
        "swim_speed":0.6,
        "swim_turn_angle":5,
        "sprint_speed":2,
        "obstacle_avoidence_strength":0.08,
        "head_offset":22,
        "player_detection_range":100,
        "health":35,
        "growth_size":70,
        "bite_size":20,
        "bite_rect_size":8
    },
    
    "agg6shark":{
        "size":36,
        "swim_speed":1,
        "swim_turn_angle":8,
        "sprint_speed":3,
        "obstacle_avoidence_strength":0.08,
        "head_offset":36,
        "player_detection_range":150,
        "health":125,
        "growth_size":250,
        "bite_size":60,
        "bite_rect_size":8
    },
    
    "agg7peeper":{
        "size":24,
        "swim_speed":0.6,
        "swim_turn_angle":5,
        "sprint_speed":2,
        "obstacle_avoidence_strength":0.08,
        "head_offset":17,
        "player_detection_range":150,
        "health":50,
        "growth_size":100,
        "bite_size":30,
        "bite_rect_size":8
    },

    "agg7sly":{
        "size":22,
        "swim_speed":0.6,
        "swim_turn_angle":5,
        "sprint_speed":2,
        "obstacle_avoidence_strength":0.08,
        "head_offset":22,
        "player_detection_range":100,
        "health":50,
        "growth_size":100,
        "bite_size":30,
        "bite_rect_size":8
    }

}